{
  "pools": [
    {
      "rolls": 1,
      "entries": [
        {
          "type": "item",
          "name": "minecraft:rabbit_foot",
          "functions": [
            {
              "function": "set_count",
              "count": {
                "min": 1,
                "max": 1
              }
            },
            {
              "function": "looting_enchant",
              "count": {
                "min": 0,
                "max": 1
              },
              "limit": 4
            }
          ]
        }
      ]
    },
    {
      "rolls": 1,
      "entries": [
        {
          "type": "item",
          "name": "minecraft:light_blue_shulker_box",
          "conditions": [
            {
              "condition": "random_chance",
              "chance": 0.01
            }
          ]
        }
      ]
    },
    {
      "rolls": 1,
      "entries": [
        {
          "type": "loot_table",
          "name": "minecraft:entities/shulker"
        }
      ]
    },
    {
      "conditions": [
        {
          "condition": "random_chance_with_looting",
          "chance": 0.005,
          "looting_multiplier": 0.001
        }
      ],
      "rolls": 1,
      "entries": [
        {
          "type": "item",
          "weight": 3,
          "name": "minecraft:skull",
          "functions": [
            {
              "function": "set_nbt",
              "tag": "{SkullOwner:{Id:\"90ef0ecf-5fe9-5398-801e-f6cc2d0e9b1a\",Properties:{textures:[{Value:\"eyJ0ZXh0dXJlcyI6eyJTS0lOIjp7InVybCI6Imh0dHA6Ly90ZXh0dXJlcy5taW5lY3JhZnQubmV0L3RleHR1cmUvMzhjYWU5NGMzNTZkOTVlOTEwODY4MTY1MmM3MjdmZDQ0NzYzNmVhMjg0MWI2NmFhNDNkOTYwMjViOThhYzZkYSJ9fX0=\"}]},Name:\"Light Blue Shulker\"}}"
            },
            {
              "function": "set_data",
              "data": 3
            }
          ]
        },
        {
          "type": "item",
          "weight": 2,
          "name": "minecraft:skull",
          "functions": [
            {
              "function": "set_nbt",
              "tag": "{SkullOwner:{Id:\"0a50a8e8-342d-5f85-806b-a4f6170e53ef\",Properties:{textures:[{Value:\"eyJ0ZXh0dXJlcyI6eyJTS0lOIjp7InVybCI6Imh0dHA6Ly90ZXh0dXJlcy5taW5lY3JhZnQubmV0L3RleHR1cmUvZTQzZDZhMmY2YzVhZWNkMzkxZWVmZDEzMDlkZDdmNDc1ODhkZDA2MDA2Y2M4ZGYzODZmN2M4MTY5OTMwMTNhMCJ9fX0=\"}]},Name:\"Light Blue Shulker Open\"}}"
            },
            {
              "function": "set_data",
              "data": 3
            }
          ]
        }
      ]
    }
  ]
}
