{
  "required": true,
  "minVersion": "0.7.10",
  "package": "com.minecraftonline.penguindungeons.mixin",
  "refmap": "mixins.penguindungeons.refmap.json",
  "target": "@env(DEFAULT)",
  "compatibilityLevel": "JAVA_8",
  "mixins": [
    "EntityShulkerBulletAccessor",
    "LootTableLoadMixin",
    "LootTableManagerAccessor",
    "SignGuiPacketHook"
  ]
}